<?xml version="1.0" encoding="UTF-8" standalone="no"?>
<!-- Uploaded to: SVG Repo, www.svgrepo.com, Generator: SVG Repo Mixer Tools -->

<svg
   fill="#000000"
   width="800"
   height="800"
   viewBox="0 0 52 52"
   enable-background="new 0 0 52 52"
   xml:space="preserve"
   version="1.1"
   id="svg1"
   sodipodi:docname="icon.svg"
   inkscape:version="1.3.1 (91b66b0783, 2023-11-16)"
   xmlns:inkscape="http://www.inkscape.org/namespaces/inkscape"
   xmlns:sodipodi="http://sodipodi.sourceforge.net/DTD/sodipodi-0.dtd"
   xmlns:xlink="http://www.w3.org/1999/xlink"
   xmlns="http://www.w3.org/2000/svg"
   xmlns:svg="http://www.w3.org/2000/svg"><defs
   id="defs1"><linearGradient
     id="linearGradient6"
     inkscape:collect="always"><stop
       style="stop-color:#87ba18;stop-opacity:0.75294119;"
       offset="0.44083971"
       id="stop6" /><stop
       style="stop-color:#a2067b;stop-opacity:1;"
       offset="0.58206111"
       id="stop7" /></linearGradient><linearGradient
     inkscape:collect="always"
     xlink:href="#linearGradient6"
     id="linearGradient7"
     x1="2"
     y1="26"
     x2="46.392086"
     y2="44.881878"
     gradientUnits="userSpaceOnUse"
     gradientTransform="matrix(0.99930654,0,0,1.007652,-0.06722958,-0.10842006)" /></defs><sodipodi:namedview
   id="namedview1"
   pagecolor="#ffffff"
   bordercolor="#000000"
   borderopacity="0.25"
   inkscape:showpageshadow="2"
   inkscape:pageopacity="0.0"
   inkscape:pagecheckerboard="0"
   inkscape:deskcolor="#d1d1d1"
   inkscape:zoom="0.73450717"
   inkscape:cx="215.11022"
   inkscape:cy="406.39494"
   inkscape:window-width="1920"
   inkscape:window-height="1027"
   inkscape:window-x="-8"
   inkscape:window-y="-8"
   inkscape:window-maximized="1"
   inkscape:current-layer="svg1" />
<path
   style="fill:url(#linearGradient7);stroke-width:1.00348"
   d="m 25.623203,0.1768457 c -4.23444,0.0482685 -7.495629,5.0613072 -5.787666,8.9617481 1.345344,3.7231132 6.515059,5.4527562 9.715723,3.0430662 0.697946,-0.463242 1.301407,-1.07097 1.758047,-1.775439 3.920846,0.05848 7.84507,-0.146596 11.747861,0.199951 1.196891,0.612078 1.459002,2.154317 1.187773,3.326172 -0.162608,2.553165 0.448298,5.185005 -0.478486,7.640039 -1.005844,1.120862 -2.593591,0.758716 -3.907744,0.755879 -0.539084,-0.06855 -1.350565,0.135427 -1.724404,-0.09852 -0.02123,-2.3111 0.349828,-4.889571 -1.043301,-6.905234 -1.41024,-1.760964 -3.878919,-2.004099 -5.968067,-1.757539 -4.784934,0.0447 -9.582954,-0.153828 -14.354716,0.255429 -2.435476,0.818284 -3.636013,3.683714 -3.188174,6.103399 v 2.408301 c -3.100655,-0.03485 -6.5081078,-0.234746 -9.1891213,1.619287 -3.2015001,2.163537 -4.67128659,6.293815 -4.17866207,10.055068 0.0523392,3.413101 -0.46343494,7.081122 1.19196287,10.221885 1.8416458,3.329238 5.8250072,5.269643 9.5382425,4.858369 3.182229,0.0032 6.364519,0.0063 9.546748,0.0095 2.165417,3.542572 7.96284,3.888205 10.444687,0.513145 2.515695,-2.914386 1.683583,-8.120473 -1.821142,-9.867051 -2.785416,-1.608316 -6.843043,-0.830649 -8.566035,1.977041 -0.893033,0.131902 -1.806155,-0.04036 -2.725303,0.03999 -3.0762,-0.01149 -6.163098,0.169682 -9.2104494,-0.274599 C 7.422888,40.758736 7.3991202,39.168212 7.5911621,37.944766 7.6897559,35.514197 7.2209125,33.012878 8.003252,30.684189 c 0.8843253,-1.109807 2.435125,-0.90434 3.670088,-0.831035 0.674556,-1e-6 1.349074,0 2.023633,0 0.03358,2.36377 -0.395367,5.026619 1.09789,7.062403 1.421493,1.723374 3.856571,1.93765 5.925157,1.696347 4.843381,-0.05741 9.704076,0.197998 14.5308,-0.289326 2.385088,-0.855905 3.537781,-3.682189 3.098037,-6.070771 v -2.404366 c 3.109387,0.02877 6.516485,0.250044 9.225811,-1.572695 3.194464,-2.115978 4.710249,-6.197422 4.243789,-9.93624 -0.03775,-3.436342 0.448733,-7.134743 -1.265977,-10.2771095 -1.882002,-3.4075618 -5.939242,-5.3830867 -9.744794,-4.9725 -3.17635,-0.00189 -6.352751,-0.00384 -9.529102,-0.00571 C 30.035302,1.2495377 27.835982,0.09827343 25.623203,0.1768457 Z"
   id="path3" /><g
   style="fill:none;fill-opacity:1;stroke-width:3.64672;stroke-dasharray:none"
   id="g9"
   transform="matrix(1.3588509,0,0,1.3357447,279.91747,220.31507)"><g
     transform="matrix(1.0021775,0,0,0.96654176,-197.91623,-157.93329)"
     id="g4"
     style="fill:none;fill-opacity:1;stroke-width:3.70527;stroke-dasharray:none"><g
       fill-rule="evenodd"
       id="g3-5"
       transform="matrix(1.6209617,0,0,1.5703032,-30.504866,-27.165185)"
       style="fill:none;fill-opacity:1;stroke-width:2.32243;stroke-dasharray:none"><path
         d="m 21.6,25.499999 h 7.8"
         fill="#ffffff"
         stroke="#ffffff"
         stroke-linecap="round"
         stroke-linejoin="round"
         stroke-width="2.6"
         id="path1-3"
         style="fill:none;fill-opacity:1;stroke-width:2.32243;stroke-dasharray:none" /><path
         d="M 25.5,29.399999 V 21.6"
         fill="#ffffff"
         stroke="#ffffff"
         stroke-linecap="round"
         stroke-linejoin="round"
         stroke-width="2.6"
         id="path2-5"
         style="fill:none;fill-opacity:1;stroke-width:2.32243;stroke-dasharray:none" /><path
         d="m 20.3,25.499999 h 10.4 c 0,0 0,0 0,-2.6 C 30.7,20.3 30.05,20.3 25.5,20.3 c -4.55,0 -5.2,0 -5.2,2.599999 z"
         fill="#fcffff"
         opacity="0.3"
         id="path3-6"
         style="fill:none;fill-opacity:1;stroke-width:2.32243;stroke-dasharray:none" /></g></g></g>
</svg>
